MessageNotUnderstood: FontFamily class>>defaultLineSpacing
3 August 2020 7:59:15.571743 pm

VM: unix - Open Smalltalk Cog[Spur] VM [CoInterpreterPrimitives VMMaker.oscog-nice.2715]
Image: Cuis 5.0 [latest update: #4279]

FontFamily class(Object)>>doesNotUnderstand: #defaultLineSpacing
	Receiver: FontFamily
	Arguments and temporary variables: 
		aMessage: 	defaultLineSpacing
		exception: 	MessageNotUnderstood: FontFamily class>>defaultLineSpacing
		resumeValue: 	nil
	Receiver's instance variables: 
		superclass: 	Object
		methodDict: 	a MethodDictionary(#aroundPointSize:->(FontFamily>>#aroundPointSize[..]
		format: 	65538
		instanceVariables: 	#('familyName' 'baseFontBySizes')
		organization: 	('initialization' familyName:)
('accessing' aroundPointSize: atPo[..]
		subclasses: 	#(StrikeFontFamily TrueTypeFontFamily)
		name: 	#FontFamily
		classPool: 	a Dictionary(#AvailableFamilies->a Dictionary('DejaVu'->a StrikeFont[..]
		sharedPools: 	nil

HaloMorph>>redrawNeeded
	Receiver: a HaloMorph(2111860)
	Arguments and temporary variables: 

	Receiver's instance variables: 
		owner: 	 [world]
		submorphs: 	#()
		location: 	MorphicTranslation(translation 0.0@0.0) 
		layoutNeeded: 	false
		layoutSpec: 	nil
		properties: 	an IdentityDictionary(#displayBounds->0@0 corner: 50@40 )
		id: 	nil
		extent: 	50@40
		color: 	(Color r: 0.600 g: 0.800 b: 1.000)
		target: 	nil
		positionOffset: 	nil
		angleOffset: 	nil
		growingOrRotating: 	false
		haloBox: 	nil

PasteUpMorph(Morph)>>removeMorph:
	Receiver:  [world]
	Arguments and temporary variables: 
		aMorph: 	a HaloMorph(2111860)
		aWorld: 	 [world]
	Receiver's instance variables: 
		owner: 	nil
		submorphs: 	#(MessageNotUnderstood: FontFamily class>>defaultLineSpacing Message[..]
		location: 	MorphicTranslation(translation 0.0@0.0) 
		layoutNeeded: 	true
		layoutSpec: 	nil
		properties: 	an IdentityDictionary(#submorphNeedsRedraw->true )
		id: 	nil
		extent: 	952@1051
		color: 	(Color r: 0.700 g: 0.720 b: 0.830)
		borderWidth: 	0
		borderColor: 	(Color r: 0.500 g: 0.500 b: 0.500)
		worldState: 	a WorldState
		backgroundImage: 	Form(952x1051x-32)
		backgroundImageData: 	#[255 216 255 236 0 17 68 117 99 107 121 0 1 0 4 0 0 0 81 [..]
		taskbar: 	a TaskbarMorph(1402363)

HaloMorph(Morph)>>privateDelete
	Receiver: a HaloMorph(2111860)
	Arguments and temporary variables: 

	Receiver's instance variables: 
		owner: 	 [world]
		submorphs: 	#()
		location: 	MorphicTranslation(translation 0.0@0.0) 
		layoutNeeded: 	false
		layoutSpec: 	nil
		properties: 	an IdentityDictionary(#displayBounds->0@0 corner: 50@40 )
		id: 	nil
		extent: 	50@40
		color: 	(Color r: 0.600 g: 0.800 b: 1.000)
		target: 	nil
		positionOffset: 	nil
		angleOffset: 	nil
		growingOrRotating: 	false
		haloBox: 	nil

HaloMorph(Morph)>>delete
	Receiver: a HaloMorph(2111860)
	Arguments and temporary variables: 
		aWorld: 	 [world]
		h: 	a HandMorph(3842586)
	Receiver's instance variables: 
		owner: 	 [world]
		submorphs: 	#()
		location: 	MorphicTranslation(translation 0.0@0.0) 
		layoutNeeded: 	false
		layoutSpec: 	nil
		properties: 	an IdentityDictionary(#displayBounds->0@0 corner: 50@40 )
		id: 	nil
		extent: 	50@40
		color: 	(Color r: 0.600 g: 0.800 b: 1.000)
		target: 	nil
		positionOffset: 	nil
		angleOffset: 	nil
		growingOrRotating: 	false
		haloBox: 	nil

HaloMorph>>step
	Receiver: a HaloMorph(2111860)
	Arguments and temporary variables: 

	Receiver's instance variables: 
		owner: 	 [world]
		submorphs: 	#()
		location: 	MorphicTranslation(translation 0.0@0.0) 
		layoutNeeded: 	false
		layoutSpec: 	nil
		properties: 	an IdentityDictionary(#displayBounds->0@0 corner: 50@40 )
		id: 	nil
		extent: 	50@40
		color: 	(Color r: 0.600 g: 0.800 b: 1.000)
		target: 	nil
		positionOffset: 	nil
		angleOffset: 	nil
		growingOrRotating: 	false
		haloBox: 	nil

HaloMorph(Morph)>>stepAt:
	Receiver: a HaloMorph(2111860)
	Arguments and temporary variables: 
		millisecondSinceLast: 	435
	Receiver's instance variables: 
		owner: 	 [world]
		submorphs: 	#()
		location: 	MorphicTranslation(translation 0.0@0.0) 
		layoutNeeded: 	false
		layoutSpec: 	nil
		properties: 	an IdentityDictionary(#displayBounds->0@0 corner: 50@40 )
		id: 	nil
		extent: 	50@40
		color: 	(Color r: 0.600 g: 0.800 b: 1.000)
		target: 	nil
		positionOffset: 	nil
		angleOffset: 	nil
		growingOrRotating: 	false
		haloBox: 	nil

StepMessage>>valueAtTime:
	Receiver: StepMessage(#stepAt: -> a HaloMorph(2111860))(a HaloMorph(2111860) #stepAt: 3773937554233)[..]
	Arguments and temporary variables: 
		millisecondClock: 	3773937555127
		nArgs: 	0
		millisecondsSinceLast: 	435
	Receiver's instance variables: 
		receiver: 	a HaloMorph(2111860)
		selector: 	#stepAt:
		arguments: 	nil
		scheduledTime: 	3773937554233
		numArgs: 	1
		stepTime: 	nil
		lastEvaluationTime: 	3773937555127

WorldState>>runLocalStepMethods:
	Receiver: a WorldState
	Arguments and temporary variables: 
		nowTime: 	3773937555127
		stepMessage: 	StepMessage(#stepAt: -> a HaloMorph(2111860))(a HaloMorph(2111860)[..]
	Receiver's instance variables: 
		hands: 	#(a HandMorph(3842586))
		viewBox: 	0@0 corner: 1008@532
		canvas: 	a BitBltCanvas on: DisplayScreen(952x1051x32)
		damageRecorder: 	a DamageRecorder
		stepList: 	a Heap(StepMessage(#stepAt: -> a HaloMorph(2111860))(a HaloMorph(2111[..]
		lastStepTime: 	3623415483726
		lastStepMessage: 	nil
		lastCycleTime: 	3773937555127
		alarms: 	a Heap()
		lastAlarmTime: 	3773937555127
		remoteServer: 	nil
		drawingFailingMorphs: 	a WeakIdentitySet(a PluggableButtonMorph(4132704) a Plugg[..]
		waitDelay: 	a Delay(50 msecs)
		pause: 	20
		lastCycleHadAnyEvent: 	false
		activeHand: 	a HandMorph(3842586)
		world: 	 [world]

WorldState>>runStepMethods
	Receiver: a WorldState
	Arguments and temporary variables: 
		queue: 	a SharedQueue(1)
		readyToProcess: 	2
	Receiver's instance variables: 
		hands: 	#(a HandMorph(3842586))
		viewBox: 	0@0 corner: 1008@532
		canvas: 	a BitBltCanvas on: DisplayScreen(952x1051x32)
		damageRecorder: 	a DamageRecorder
		stepList: 	a Heap(StepMessage(#stepAt: -> a HaloMorph(2111860))(a HaloMorph(2111[..]
		lastStepTime: 	3623415483726
		lastStepMessage: 	nil
		lastCycleTime: 	3773937555127
		alarms: 	a Heap()
		lastAlarmTime: 	3773937555127
		remoteServer: 	nil
		drawingFailingMorphs: 	a WeakIdentitySet(a PluggableButtonMorph(4132704) a Plugg[..]
		waitDelay: 	a Delay(50 msecs)
		pause: 	20
		lastCycleHadAnyEvent: 	false
		activeHand: 	a HandMorph(3842586)
		world: 	 [world]

WorldState>>doOneCycleNow
	Receiver: a WorldState
	Arguments and temporary variables: 
		hadAnyEvent: 	#(nil)
	Receiver's instance variables: 
		hands: 	#(a HandMorph(3842586))
		viewBox: 	0@0 corner: 1008@532
		canvas: 	a BitBltCanvas on: DisplayScreen(952x1051x32)
		damageRecorder: 	a DamageRecorder
		stepList: 	a Heap(StepMessage(#stepAt: -> a HaloMorph(2111860))(a HaloMorph(2111[..]
		lastStepTime: 	3623415483726
		lastStepMessage: 	nil
		lastCycleTime: 	3773937555127
		alarms: 	a Heap()
		lastAlarmTime: 	3773937555127
		remoteServer: 	nil
		drawingFailingMorphs: 	a WeakIdentitySet(a PluggableButtonMorph(4132704) a Plugg[..]
		waitDelay: 	a Delay(50 msecs)
		pause: 	20
		lastCycleHadAnyEvent: 	false
		activeHand: 	a HandMorph(3842586)
		world: 	 [world]

WorldState>>doOneCycle
	Receiver: a WorldState
	Arguments and temporary variables: 
		wait: 	0
		waitUntil: 	nil
	Receiver's instance variables: 
		hands: 	#(a HandMorph(3842586))
		viewBox: 	0@0 corner: 1008@532
		canvas: 	a BitBltCanvas on: DisplayScreen(952x1051x32)
		damageRecorder: 	a DamageRecorder
		stepList: 	a Heap(StepMessage(#stepAt: -> a HaloMorph(2111860))(a HaloMorph(2111[..]
		lastStepTime: 	3623415483726
		lastStepMessage: 	nil
		lastCycleTime: 	3773937555127
		alarms: 	a Heap()
		lastAlarmTime: 	3773937555127
		remoteServer: 	nil
		drawingFailingMorphs: 	a WeakIdentitySet(a PluggableButtonMorph(4132704) a Plugg[..]
		waitDelay: 	a Delay(50 msecs)
		pause: 	20
		lastCycleHadAnyEvent: 	false
		activeHand: 	a HandMorph(3842586)
		world: 	 [world]

PasteUpMorph>>doOneCycle
	Receiver:  [world]
	Arguments and temporary variables: 

	Receiver's instance variables: 
		owner: 	nil
		submorphs: 	#(MessageNotUnderstood: FontFamily class>>defaultLineSpacing Message[..]
		location: 	MorphicTranslation(translation 0.0@0.0) 
		layoutNeeded: 	true
		layoutSpec: 	nil
		properties: 	an IdentityDictionary(#submorphNeedsRedraw->true )
		id: 	nil
		extent: 	952@1051
		color: 	(Color r: 0.700 g: 0.720 b: 0.830)
		borderWidth: 	0
		borderColor: 	(Color r: 0.500 g: 0.500 b: 0.500)
		worldState: 	a WorldState
		backgroundImage: 	Form(952x1051x-32)
		backgroundImageData: 	#[255 216 255 236 0 17 68 117 99 107 121 0 1 0 4 0 0 0 81 [..]
		taskbar: 	a TaskbarMorph(1402363)

PasteUpMorph>>mainLoop
	Receiver:  [world]
	Arguments and temporary variables: 

	Receiver's instance variables: 
		owner: 	nil
		submorphs: 	#(MessageNotUnderstood: FontFamily class>>defaultLineSpacing Message[..]
		location: 	MorphicTranslation(translation 0.0@0.0) 
		layoutNeeded: 	true
		layoutSpec: 	nil
		properties: 	an IdentityDictionary(#submorphNeedsRedraw->true )
		id: 	nil
		extent: 	952@1051
		color: 	(Color r: 0.700 g: 0.720 b: 0.830)
		borderWidth: 	0
		borderColor: 	(Color r: 0.500 g: 0.500 b: 0.500)
		worldState: 	a WorldState
		backgroundImage: 	Form(952x1051x-32)
		backgroundImageData: 	#[255 216 255 236 0 17 68 117 99 107 121 0 1 0 4 0 0 0 81 [..]
		taskbar: 	a TaskbarMorph(1402363)

[] in PasteUpMorph>>runProcess
	Receiver:  [world]
	Arguments and temporary variables: 
<<error during printing>
	Receiver's instance variables: 
		owner: 	nil
		submorphs: 	#(MessageNotUnderstood: FontFamily class>>defaultLineSpacing Message[..]
		location: 	MorphicTranslation(translation 0.0@0.0) 
		layoutNeeded: 	true
		layoutSpec: 	nil
		properties: 	an IdentityDictionary(#submorphNeedsRedraw->true )
		id: 	nil
		extent: 	952@1051
		color: 	(Color r: 0.700 g: 0.720 b: 0.830)
		borderWidth: 	0
		borderColor: 	(Color r: 0.500 g: 0.500 b: 0.500)
		worldState: 	a WorldState
		backgroundImage: 	Form(952x1051x-32)
		backgroundImageData: 	#[255 216 255 236 0 17 68 117 99 107 121 0 1 0 4 0 0 0 81 [..]
		taskbar: 	a TaskbarMorph(1402363)

[] in BlockClosure>>newProcess
	Receiver: [closure] in PasteUpMorph>>runProcess
	Arguments and temporary variables: 

	Receiver's instance variables: 
		outerContext: 	PasteUpMorph>>runProcess
		startpc: 	93
		numArgs: 	0


--- The full stack ---
FontFamily class(Object)>>doesNotUnderstand: #defaultLineSpacing
HaloMorph>>redrawNeeded
PasteUpMorph(Morph)>>removeMorph:
HaloMorph(Morph)>>privateDelete
HaloMorph(Morph)>>delete
HaloMorph>>step
HaloMorph(Morph)>>stepAt:
StepMessage>>valueAtTime:
WorldState>>runLocalStepMethods:
WorldState>>runStepMethods
WorldState>>doOneCycleNow
WorldState>>doOneCycle
PasteUpMorph>>doOneCycle
PasteUpMorph>>mainLoop
[] in PasteUpMorph>>runProcess
[] in BlockClosure>>newProcess
